<?xml version="1.0" encoding="UTF-8"?>
<svg width="1366px" height="768px" viewBox="0 0 1366 768" version="1.1" xmlns="http://www.w3.org/2000/svg" xmlns:xlink="http://www.w3.org/1999/xlink">
    <!-- Generator: sketchtool 62 (101010) - https://sketch.com -->
    <title>C7EEC327-A7DB-4A29-9757-387F5AC63D80</title>
    <desc>Created with sketchtool.</desc>
    <defs>
        <rect id="path-1" x="0" y="0" width="1366" height="768"></rect>
    </defs>
    <g id="coming-soon-page" stroke="none" stroke-width="1" fill="none" fill-rule="evenodd">
        <g id="Coming-Soon-Page">
            <g id="bg-2">
                <g id="bg">
                    <mask id="mask-2" fill="white">
                        <use xlink:href="#path-1"></use>
                    </mask>
                    <use id="Mask" fill="#F5F5F5" xlink:href="#path-1"></use>
                    <path d="M1940.74073,369.259972 C1937.54668,333.120283 1931.18226,297.342803 1921.72869,262.323594 C1903.82645,116.874548 1816.72769,-22.0411896 1701.0212,-110.565825 C1642.18843,-155.577949 1563.40299,-182.472838 1491.68913,-152.003248 C1458.05349,-137.714598 1435.76958,-111.493351 1413.54657,-83.535531 C1391.81756,-56.1870347 1368.50167,-33.2121313 1335.56303,-19.9424067 C1265.76763,8.16774476 1188.38636,-5.63683105 1118.28644,-24.5055671 C1041.79165,-45.0973362 964.894227,-72.4661433 884.481316,-68.0790099 C816.431814,-64.3655181 750.442881,-38.970244 709.343174,17.5614912 C669.224691,72.7493282 661.466262,145.868219 667.289313,212.061126 C670.493513,248.478396 683.560696,286.405436 680.356496,322.951341 C677.260568,358.234591 648.690063,379.919758 621.503421,398.301035 C592.811109,417.701237 564.626327,436.732459 540.819828,462.208977 C517.172356,487.512852 497.246763,516.584381 482.440448,547.90364 C453.152635,609.8719 442.284745,678.617198 453.095115,746.418044 C463.834431,813.755126 497.124956,875.885872 541.25292,927.194346 C642.281662,1044.65849 794.645282,1093.98328 944.555844,1108.30916 C1109.12046,1124.02972 1275.23135,1108.51566 1428.72169,1044.997 C1502.77018,1014.35139 1573.05281,975.530672 1639.18386,930.305284 C1702.22574,887.192219 1762.68599,838.815272 1812.47459,780.577429 C1909.58521,666.982493 1953.8722,517.775949 1940.74073,369.259972" id="Fill-1" fill="#F5F5F5" style="mix-blend-mode: multiply;" mask="url(#mask-2)"></path>
                </g>
            </g>
        </g>
    </g>
</svg>